{
  "version": 3,
  "sha1": "8bb10d1030ca4b743c4de6d4327799da2e730ba8",
  "hash_tree_depth": 2,
  "module_name": "",
  "description": "Mystara AU",
  "includes_module_contents": false,
  "total_files": 117408,
  "total_bytes": 4149873348,
  "on_disk_bytes": 1612787995,
  "created": 1575782254
}
